23440 220155 386
416089 746797 509
381759 851368 525
742251 654698 504
756569 514618 509
814708 279949 509
253959 89157 443
40143 841215 525
979634 510443 525
600396 406490 470
813154 842744 525
281160 642745 509
103982 272543 443
210414 604859 470
908242 98649 525
601895 953271 525
980955 364095 525
454939 999307 525
21655 651310 509
220625 104772 386
736473 564516 509
319118 226567 443
297547 249102 407
292478 690535 509
155441 529849 470
739449 196453 509
245647 241305 337
213778 438211 449
793911 83142 509
468815 293919 449
362103 120879 443
261715 926081 525
386405 163759 443
951124 443650 525
842932 593744 525
238796 47813 443
874622 295047 525
27296 298093 443
809242 232026 509
897141 229336 525
567391 621483 447
835435 743707 468
289704 118062 443
235119 956582 525
908570 243594 525
437661 499996 444
837451 552760 509
505717 677275 509
202849 276028 443
886156 978180 507
678512 927179 525
182196 631869 509
184350 726479 509
598846 316498 470
600596 247166 470
793676 83873 509
263401 954051 525
400031 624184 470
484210 639224 509
978672 196225 525
614893 514391 452
473486 487956 413
585277 23395 470
828334 83810 509
953816 639440 525
863867 313137 525
581319 46198 470
638592 324671 509
968233 641703 525
491090 395433 449
733818 305942 509
730474 349741 509
429620 708402 509
814913 279312 509
820147 860862 525
808842 997767 525
112842 928722 525
595522 469461 470
687867 878237 525
705325 182163 509
333536 192996 443
735427 890185 525
515021 163511 470
602319 459071 470
813156 287107 509
869289 312832 525
774017 270605 509
777348 874760 525
299884 634803 509
892207 114836 525
25923 821532 509
506382 496137 426
815471 823293 450
359465 241382 441
331630 462355 449
137439 58611 354
872387 593886 525
367919 593386 470
161338 16834 383
587077 945316 525
847676 974979 507
875920 174256 525
466169 38348 449
874743 324965 525
703471 137349 509
594259 799182 509
753774 1472 509
662976 714539 504
569298 607941 434
428944 402794 449
693255 42505 509
305492 155168 443
505109 935417 525
245145 65999 443
740932 837496 468
918373 566059 525
912333 502407 525
739331 308215 509
249871 416279 449
59214 923885 525
613528 383538 470
775829 434320 509
503743 387436 449
30291 348679 443
250749 44211 443
320230 79025 443
507242 998834 525
99116 468872 449
68944 348734 443
136215 830462 509
352339 46693 443
683817 621192 509
509002 185365 449
460288 993113 525
961520 2385 525
73644 242592 443
33429 310791 443
696171 311543 509
890235 796528 525
600775 994271 525
306891 601877 470
22801 678547 509
558166 55276 470
687322 572559 509
368829 155639 443
811920 684003 504
939412 518673 525
88213 211538 383
722621 990291 525
115953 48104 354
470000 226081 449
625927 323808 470
796361 780407 468
619640 277341 470
972777 87104 525
231551 574857 470
306059 569882 470
961743 759196 525
482666 408414 449
680124 94220 509
618342 735983 509
818338 916769 525
95052 976849 525
920201 203849 525
294104 167462 443
62343 233480 443
508168 963621 525
841294 42660 525
403055 326376 441
675537 201133 509
164113 483007 449
873628 768575 525
729004 50180 509
679933 692847 442
347828 923801 525
784421 469017 509
792683 232157 509
569416 933823 525
713019 34118 509
391894 141330 443
174515 892856 525
460021 881079 525
622276 390162 470
276651 976921 525
499348 878822 525
933403 70919 525
160463 962032 525
640928 348228 509
444596 144371 449
876577 374913 525
215882 528916 470
41973 107563 354
849703 621959 525
210397 245712 443
386360 675954 509
594781 488488 470
281479 28149 443
226153 608001 470
114831 756439 509
933608 35555 525
401142 719899 509
771879 363310 509
761577 587365 509
860504 784960 525
34169 827360 509
740645 147912 509
838664 226382 525
841886 155236 525
66274 668268 509
517055 343801 470
815850 975373 525
148865 987041 525
363207 805505 509
43848 855781 525
264765 393472 441
941035 422493 525
773579 191655 509
915748 936062 476
31372 885778 525
848565 692084 525
647103 710613 504
253226 203591 443
445896 556301 470
715199 853157 525
540054 1276 470
412355 305167 449
443266 21667 449
618059 575491 447
752656 460675 509
315026 993023 525
546766 600642 434
542641 121791 470
359983 413991 449
187179 807381 509
459230 658589 509
234218 386922 441
45641 248967 443
578904 319982 470
174392 64528 383
195020 333579 443
423411 162932 449
595998 736159 509
2278 31828 308
323593 806214 509
569307 703948 509
200415 75089 383
910936 20553 525
165645 64812 383
423656 517747 470
260456 979283 525
